/Users/TheBeast/Desktop/CSI 3471/FITNESS.AIO/repo/fitness/3471/src/main/java/database/Database.java
/Users/TheBeast/Desktop/CSI 3471/FITNESS.AIO/repo/fitness/3471/src/main/java/diary_objects/FoodDiary.java
/Users/TheBeast/Desktop/CSI 3471/FITNESS.AIO/repo/fitness/3471/src/main/java/user_interface/DateLabelFormatter.java
/Users/TheBeast/Desktop/CSI 3471/FITNESS.AIO/repo/fitness/3471/src/main/java/user_interface/Routine.java
/Users/TheBeast/Desktop/CSI 3471/FITNESS.AIO/repo/fitness/3471/src/main/java/user_interface/UserInfoWindow.java
/Users/TheBeast/Desktop/CSI 3471/FITNESS.AIO/repo/fitness/3471/src/main/java/user_interface/Schedule.java
/Users/TheBeast/Desktop/CSI 3471/FITNESS.AIO/repo/fitness/3471/src/main/java/diary_objects/Diary.java
/Users/TheBeast/Desktop/CSI 3471/FITNESS.AIO/repo/fitness/3471/src/main/java/user_interface/OneRepWindow.java
/Users/TheBeast/Desktop/CSI 3471/FITNESS.AIO/repo/fitness/3471/src/main/java/user_interface/CreateNewUserWindow.java
/Users/TheBeast/Desktop/CSI 3471/FITNESS.AIO/repo/fitness/3471/src/main/java/user_interface/FormWindow.java
/Users/TheBeast/Desktop/CSI 3471/FITNESS.AIO/repo/fitness/3471/src/main/java/user_interface/Login.java
/Users/TheBeast/Desktop/CSI 3471/FITNESS.AIO/repo/fitness/3471/src/main/java/diary_objects/SleepDiary.java
/Users/TheBeast/Desktop/CSI 3471/FITNESS.AIO/repo/fitness/3471/src/main/java/user_interface/DiaryWindow.java
/Users/TheBeast/Desktop/CSI 3471/FITNESS.AIO/repo/fitness/3471/src/main/java/user_interface/LoginWindow.java
/Users/TheBeast/Desktop/CSI 3471/FITNESS.AIO/repo/fitness/3471/src/main/java/diary_objects/Food.java
/Users/TheBeast/Desktop/CSI 3471/FITNESS.AIO/repo/fitness/3471/src/main/java/diary_objects/GymDiary.java
